<svg width="128" height="167" viewBox="0 0 128 167" fill="none" xmlns="http://www.w3.org/2000/svg">
<path d="M11.0298 123.318L64.817 150.667L116.562 123.318V16.3708H11.0298V123.318Z" fill="white"/>
<path d="M117.651 16.779L9.94043 125.223L65.7702 152.845L117.651 126.312V16.779Z" fill="#F2F3F2"/>
<path d="M7.48938 52.02V125.631L9.39576 126.584L63.183 153.933L64.817 154.749L66.4511 153.933L118.332 126.584L120.238 125.631V12.8331H7.48938V52.02ZM11.0298 123.59V16.3708H116.698V123.59L64.817 150.94L11.0298 123.59Z" fill="#DCDEDC"/>
<path d="M63.8638 18.1396C64.4085 18.1396 64.9532 18.1396 65.4979 18.2757L63.8638 21.4052C61.4128 21.2691 59.2341 23.1741 59.0979 25.6232C58.9617 28.0724 60.8681 30.2495 63.3192 30.3855H63.8638C64.9532 30.3855 66.0426 29.9773 66.8596 29.297L68.6298 32.2904C67.2681 33.2429 65.6341 33.7872 63.8638 33.7872C59.5064 33.9232 55.8298 30.6577 55.6936 26.3036C55.5575 21.9495 58.8256 18.2757 63.183 18.1396H63.8638ZM69.4468 24.8068L71.4894 28.2085L69.4468 31.4741L67.5404 28.2085H63.5915L65.6341 24.8068H69.4468ZM66.1787 23.5823C66.1787 23.038 66.3149 22.4937 66.5873 22.0855C66.8596 21.6773 67.4043 21.2691 67.8128 20.997L68.0851 20.8609C68.6298 20.5888 68.766 20.4527 68.766 20.1806C68.766 19.9085 68.3575 19.6363 68.0851 19.6363C67.5404 19.6363 67.1319 19.9085 66.8596 20.4527L66.1787 19.7724C66.3149 19.5003 66.5872 19.2282 66.8596 18.956C67.2681 18.6839 67.6766 18.6839 68.0851 18.6839C68.4936 18.6839 69.0383 18.82 69.3107 19.0921C69.583 19.3642 69.8553 19.7724 69.8553 20.1806C69.8553 20.8609 69.4468 21.4052 68.6298 21.6773L68.2213 21.9495C67.8128 22.2216 67.5404 22.3577 67.4043 22.7659H69.8553V23.7183L66.1787 23.5823ZM63.8638 40.5904L76.8 33.2429V12.8331H50.7915V33.1068L63.8638 40.5904Z" fill="#FF492C"/>
<path d="M122.826 88.7577H4.90212L0.544678 98.2823L4.90212 107.807H122.826L127.047 98.2823L122.826 88.7577Z" fill="#5A39A2"/>
<path d="M38.2366 82.6347C38.1004 82.6347 38.0051 82.5712 37.9506 82.4442L35.4043 76.7975C35.377 76.7431 35.3362 76.7159 35.2817 76.7159H33.3753C33.3118 76.7159 33.28 76.7521 33.28 76.8247V82.3898C33.28 82.4624 33.2573 82.5213 33.2119 82.5667C33.1574 82.612 33.0984 82.6347 33.0349 82.6347H30.6383C30.5747 82.6347 30.5203 82.612 30.4749 82.5667C30.4204 82.5213 30.3932 82.4624 30.3932 82.3898V68.5927C30.3932 68.5292 30.4204 68.4703 30.4749 68.4159C30.5203 68.3705 30.5747 68.3478 30.6383 68.3478H36.48C37.3515 68.3478 38.1186 68.5247 38.7813 68.8785C39.444 69.2322 39.9569 69.7357 40.32 70.3888C40.674 71.0419 40.8511 71.7994 40.8511 72.6611C40.8511 73.5863 40.6196 74.3755 40.1566 75.0286C39.6936 75.6908 39.0491 76.158 38.223 76.4301C38.1504 76.4573 38.1277 76.5027 38.1549 76.5662L40.9328 82.349C40.9691 82.4034 40.9872 82.4442 40.9872 82.4714C40.9872 82.5803 40.9101 82.6347 40.7557 82.6347H38.2366ZM33.3753 70.8106C33.3118 70.8106 33.28 70.8469 33.28 70.9195V74.4163C33.28 74.4798 33.3118 74.5116 33.3753 74.5116H36.0579C36.6298 74.5116 37.0973 74.3438 37.4604 74.0082C37.8235 73.6635 38.0051 73.219 38.0051 72.6747C38.0051 72.1304 37.8235 71.686 37.4604 71.3413C37.0973 70.9875 36.6298 70.8106 36.0579 70.8106H33.3753ZM51.9081 76.3077C51.9898 76.8247 52.017 77.4007 51.9898 78.0357C51.9716 78.208 51.8808 78.2942 51.7174 78.2942H45.4128C45.3311 78.2942 45.3038 78.326 45.3311 78.3895C45.3674 78.6616 45.44 78.9337 45.5489 79.2059C45.903 79.9678 46.6247 80.3488 47.714 80.3488C48.5855 80.3397 49.2755 79.986 49.7838 79.2875C49.8383 79.2059 49.8973 79.165 49.9608 79.165C50.0062 79.165 50.0562 79.1922 50.1106 79.2467L51.5813 80.689C51.6448 80.7615 51.6766 80.825 51.6766 80.8795C51.6766 80.9067 51.6494 80.9611 51.5949 81.0427C51.1501 81.6051 50.5736 82.036 49.8655 82.3354C49.1574 82.6438 48.3813 82.798 47.537 82.798C46.366 82.798 45.3765 82.5349 44.5685 82.0088C43.7515 81.4736 43.166 80.7298 42.8119 79.7773C42.5305 79.097 42.3898 78.208 42.3898 77.1104C42.3898 76.3575 42.4896 75.6954 42.6894 75.1239C43.0071 74.1624 43.5563 73.3959 44.337 72.8244C45.1177 72.2529 46.0482 71.9672 47.1285 71.9672C48.4902 71.9672 49.5841 72.3618 50.4102 73.1509C51.2363 73.9401 51.7356 74.9924 51.9081 76.3077ZM47.1421 74.4572C46.2888 74.4572 45.726 74.8563 45.4536 75.6545C45.3991 75.836 45.3492 76.0537 45.3038 76.3077C45.3038 76.3712 45.3401 76.4029 45.4128 76.4029H48.9396C49.0213 76.4029 49.0485 76.3712 49.0213 76.3077C48.9577 75.9176 48.926 75.7271 48.926 75.7362C48.7989 75.328 48.5855 75.0105 48.286 74.7837C47.9773 74.566 47.596 74.4572 47.1421 74.4572ZM57.8043 82.7708C56.8965 82.7708 56.1021 82.6438 55.4213 82.3898C54.7404 82.1358 54.2139 81.7775 53.8417 81.3149C53.4604 80.8522 53.2698 80.3261 53.2698 79.7365V79.5324C53.2698 79.4689 53.297 79.41 53.3515 79.3555C53.3969 79.3102 53.4513 79.2875 53.5149 79.2875H55.7889C55.8525 79.2875 55.9115 79.3102 55.966 79.3555C56.0113 79.41 56.034 79.4689 56.034 79.5324V79.546C56.034 79.8544 56.202 80.113 56.5379 80.3216C56.8647 80.5302 57.2823 80.6345 57.7906 80.6345C58.2536 80.6345 58.6258 80.5438 58.9072 80.3624C59.1977 80.1719 59.343 79.9451 59.343 79.6821C59.343 79.4372 59.2204 79.2512 58.9753 79.1242C58.7302 79.0063 58.3262 78.8793 57.7634 78.7432C57.1279 78.58 56.6241 78.4212 56.2519 78.267C55.3804 77.9677 54.686 77.6003 54.1685 77.1649C53.6511 76.7295 53.3923 76.1036 53.3923 75.2872C53.3923 74.2803 53.7872 73.482 54.577 72.8924C55.3577 72.3028 56.3926 72.008 57.6817 72.008C58.5532 72.008 59.3157 72.1441 59.9694 72.4162C60.623 72.6974 61.1313 73.092 61.4945 73.6C61.8576 74.0989 62.0391 74.6703 62.0391 75.3144C62.0391 75.3779 62.0164 75.4323 61.9711 75.4777C61.9166 75.523 61.8576 75.5457 61.794 75.5457H59.6017C59.5382 75.5457 59.4837 75.523 59.4383 75.4777C59.3838 75.4323 59.3566 75.3779 59.3566 75.3144C59.3566 75.015 59.2068 74.761 58.9072 74.5524C58.5986 74.3438 58.1901 74.2395 57.6817 74.2395C57.2369 74.2395 56.8692 74.3256 56.5787 74.498C56.2973 74.6613 56.1566 74.8835 56.1566 75.1647C56.1566 75.4368 56.2973 75.6409 56.5787 75.777C56.8511 75.9131 57.314 76.0582 57.9677 76.2124L58.4851 76.3349C58.6757 76.3802 58.88 76.4392 59.0979 76.5118C60.0601 76.802 60.8227 77.1694 61.3855 77.6139C61.9393 78.0674 62.2162 78.7206 62.2162 79.5732C62.2162 80.5801 61.8213 81.3648 61.0315 81.9272C60.2326 82.4896 59.1569 82.7708 57.8043 82.7708ZM70.0051 72.389C70.0051 72.3255 70.0278 72.2665 70.0732 72.2121C70.1186 72.1667 70.1776 72.1441 70.2502 72.1441H72.6332C72.7058 72.1441 72.7648 72.1667 72.8102 72.2121C72.8556 72.2665 72.8783 72.3255 72.8783 72.389V82.3898C72.8783 82.4624 72.8556 82.5213 72.8102 82.5667C72.7648 82.612 72.7058 82.6347 72.6332 82.6347H70.2502C70.1776 82.6347 70.1186 82.612 70.0732 82.5667C70.0278 82.5213 70.0051 82.4624 70.0051 82.3898V81.6959C70.0051 81.6596 69.9915 81.6369 69.9643 81.6278C69.937 81.6187 69.9098 81.6369 69.8825 81.6822C69.3379 82.4079 68.4936 82.7708 67.3498 82.7708C66.3149 82.7708 65.4616 82.4624 64.7898 81.8455C64.1271 81.2196 63.7957 80.3397 63.7957 79.2059V72.389C63.7957 72.3255 63.8184 72.2665 63.8638 72.2121C63.9092 72.1667 63.9682 72.1441 64.0408 72.1441H66.4102C66.4738 72.1441 66.5328 72.1667 66.5872 72.2121C66.6326 72.2665 66.6553 72.3255 66.6553 72.389V78.4983C66.6553 79.0426 66.8006 79.4825 67.0911 79.8182C67.3816 80.1628 67.7855 80.3352 68.303 80.3352C68.775 80.3352 69.1563 80.1946 69.4468 79.9134C69.7464 79.6322 69.9325 79.2694 70.0051 78.8249V72.389ZM75.2477 82.6347C75.1841 82.6347 75.1296 82.612 75.0843 82.5667C75.0298 82.5213 75.0026 82.4624 75.0026 82.3898V68.5927C75.0026 68.5292 75.0298 68.4703 75.0843 68.4159C75.1296 68.3705 75.1841 68.3478 75.2477 68.3478H77.6443C77.7078 68.3478 77.7668 68.3705 77.8213 68.4159C77.8667 68.4703 77.8894 68.5292 77.8894 68.5927V82.3898C77.8894 82.4624 77.8667 82.5213 77.8213 82.5667C77.7668 82.612 77.7078 82.6347 77.6443 82.6347H75.2477ZM86.0187 74.2123C86.0187 74.2757 85.996 74.3302 85.9506 74.3755C85.8962 74.43 85.8372 74.4572 85.7736 74.4572H83.8128C83.7401 74.4572 83.7038 74.4889 83.7038 74.5524V78.8793C83.7038 79.3238 83.7991 79.6594 83.9898 79.8862C84.1713 80.1039 84.4664 80.2127 84.8749 80.2127H85.5421C85.6147 80.2127 85.6738 80.2354 85.7191 80.2808C85.7645 80.3261 85.7872 80.3851 85.7872 80.4577V82.3898C85.7872 82.544 85.7055 82.6302 85.5421 82.6483C84.9702 82.6755 84.5617 82.6891 84.3166 82.6891C83.1909 82.6891 82.3467 82.5032 81.7838 82.1313C81.2301 81.7594 80.9441 81.0564 80.926 80.0223V74.5524C80.926 74.4889 80.8942 74.4572 80.8306 74.4572H79.6596C79.596 74.4572 79.5416 74.43 79.4962 74.3755C79.4417 74.3302 79.4145 74.2757 79.4145 74.2123V72.389C79.4145 72.3255 79.4417 72.2665 79.4962 72.2121C79.5416 72.1667 79.596 72.1441 79.6596 72.1441H80.8306C80.8942 72.1441 80.926 72.1078 80.926 72.0352V69.6132C80.926 69.5497 80.9532 69.4908 81.0077 69.4363C81.053 69.391 81.1075 69.3683 81.1711 69.3683H83.4587C83.5313 69.3683 83.5903 69.391 83.6357 69.4363C83.6811 69.4908 83.7038 69.5497 83.7038 69.6132V72.0352C83.7038 72.1078 83.7401 72.1441 83.8128 72.1441H85.7736C85.8372 72.1441 85.8962 72.1667 85.9506 72.2121C85.996 72.2665 86.0187 72.3255 86.0187 72.389V74.2123ZM91.9421 82.7708C91.0252 82.7708 90.2264 82.6438 89.5455 82.3898C88.8647 82.1358 88.3382 81.7775 87.966 81.3149C87.5938 80.8522 87.4077 80.3261 87.4077 79.7365V79.5324C87.4077 79.4689 87.4303 79.41 87.4757 79.3555C87.5211 79.3102 87.5801 79.2875 87.6528 79.2875H89.9132C89.9858 79.2875 90.0448 79.3102 90.0902 79.3555C90.1356 79.41 90.1583 79.4689 90.1583 79.5324V79.546C90.1583 79.8544 90.3262 80.113 90.6621 80.3216C90.998 80.5302 91.4156 80.6345 91.9149 80.6345C92.3779 80.6345 92.7546 80.5438 93.0451 80.3624C93.3265 80.1719 93.4672 79.9451 93.4672 79.6821C93.4672 79.4372 93.3447 79.2512 93.0996 79.1242C92.8545 79.0063 92.455 78.8793 91.9013 78.7432C91.2567 78.58 90.7529 78.4212 90.3898 78.267C89.5183 77.9677 88.8238 77.6003 88.3064 77.1649C87.7889 76.7295 87.5302 76.1036 87.5302 75.2872C87.5302 74.2803 87.9206 73.482 88.7013 72.8924C89.482 72.3028 90.5214 72.008 91.8196 72.008C92.6911 72.008 93.4536 72.1441 94.1072 72.4162C94.7608 72.6974 95.2692 73.092 95.6323 73.6C95.9864 74.0989 96.1634 74.6703 96.1634 75.3144C96.1634 75.3779 96.1407 75.4323 96.0953 75.4777C96.0499 75.523 95.9909 75.5457 95.9183 75.5457H93.7396C93.6669 75.5457 93.6079 75.523 93.5625 75.4777C93.5172 75.4323 93.4945 75.3779 93.4945 75.3144C93.4945 75.015 93.3401 74.761 93.0315 74.5524C92.7228 74.3438 92.3189 74.2395 91.8196 74.2395C91.3657 74.2395 90.998 74.3256 90.7166 74.498C90.4261 74.6613 90.2808 74.8835 90.2808 75.1647C90.2808 75.4368 90.4216 75.6409 90.703 75.777C90.9844 75.9131 91.4519 76.0582 92.1055 76.2124C92.2508 76.2487 92.4187 76.2895 92.6094 76.3349C92.8 76.3802 93.0042 76.4392 93.2221 76.5118C94.1935 76.802 94.956 77.1694 95.5098 77.6139C96.0726 78.0674 96.354 78.7206 96.354 79.5732C96.354 80.5801 95.9546 81.3648 95.1557 81.9272C94.3569 82.4896 93.2857 82.7708 91.9421 82.7708ZM51.9762 54.7821C51.8945 54.8184 51.8945 54.8592 51.9762 54.9045C53.2652 55.5667 53.9098 56.6734 53.9098 58.2245C53.9098 59.5489 53.4604 60.5467 52.5617 61.218C51.663 61.8892 50.4874 62.2249 49.0349 62.2249H43.7379C43.6743 62.2249 43.6199 62.2022 43.5745 62.1568C43.52 62.1115 43.4928 62.0525 43.4928 61.98V48.1829C43.4928 48.1194 43.52 48.0604 43.5745 48.006C43.6199 47.9607 43.6743 47.938 43.7379 47.938H48.8715C52.0942 47.938 53.7055 49.2442 53.7055 51.8567C53.7055 53.2173 53.1291 54.1925 51.9762 54.7821ZM46.4749 50.4008C46.4113 50.4008 46.3796 50.4371 46.3796 50.5096V53.6936C46.3796 53.7661 46.4113 53.8024 46.4749 53.8024H48.8715C49.5069 53.8024 50.0062 53.6527 50.3694 53.3534C50.7143 53.0541 50.8868 52.6459 50.8868 52.1288C50.8868 51.5936 50.7143 51.1718 50.3694 50.8634C50.0062 50.555 49.5069 50.4008 48.8715 50.4008H46.4749ZM49.0349 59.7349C49.6613 59.7349 50.1515 59.5761 50.5055 59.2586C50.8596 58.9412 51.0366 58.5012 51.0366 57.9388C51.0366 57.3855 50.8596 56.9455 50.5055 56.619C50.1515 56.3015 49.6522 56.1427 49.0077 56.1427H46.4749C46.4113 56.1427 46.3796 56.179 46.3796 56.2516V59.626C46.3796 59.6986 46.4113 59.7349 46.4749 59.7349H49.0349ZM65.2664 55.8978C65.3481 56.4149 65.3753 56.9909 65.3481 57.6259C65.339 57.7982 65.2528 57.8844 65.0894 57.8844H58.7711C58.6894 57.8844 58.6621 57.9161 58.6894 57.9796C58.7347 58.2518 58.8119 58.5239 58.9208 58.796C59.2749 59.558 59.9966 59.939 61.086 59.939C61.9574 59.9299 62.6428 59.5761 63.1421 58.8777C63.1966 58.796 63.2601 58.7552 63.3328 58.7552C63.3691 58.7552 63.4145 58.7824 63.4689 58.8368L64.9396 60.2791C65.0122 60.3517 65.0485 60.4152 65.0485 60.4696C65.0485 60.4968 65.0213 60.5513 64.9668 60.6329C64.5129 61.1953 63.9319 61.6262 63.2238 61.9255C62.5248 62.2339 61.7487 62.3882 60.8953 62.3882C59.7243 62.3882 58.7347 62.1251 57.9268 61.599C57.1189 61.0638 56.5379 60.32 56.1838 59.3675C55.8933 58.6872 55.7481 57.7982 55.7481 56.7006C55.7481 55.9477 55.8525 55.2855 56.0613 54.7141C56.3699 53.7525 56.9191 52.986 57.7089 52.4145C58.4896 51.8431 59.4156 51.5573 60.4868 51.5573C61.8485 51.5573 62.9424 51.9519 63.7685 52.7411C64.5946 53.5303 65.0939 54.5825 65.2664 55.8978ZM60.514 54.0473C59.6516 54.0473 59.0842 54.4465 58.8119 55.2447C58.7574 55.4261 58.7121 55.6438 58.6757 55.8978C58.6757 55.9613 58.7075 55.9931 58.7711 55.9931H62.3115C62.3932 55.9931 62.4204 55.9613 62.3932 55.8978C62.3206 55.5078 62.2843 55.3173 62.2843 55.3263C62.1662 54.9182 61.9529 54.6007 61.6443 54.3739C61.3356 54.1562 60.9589 54.0473 60.514 54.0473ZM71.1762 62.3609C70.2593 62.3609 69.4604 62.2339 68.7796 61.98C68.0987 61.726 67.5722 61.3677 67.2 60.905C66.8278 60.4424 66.6417 59.9163 66.6417 59.3267V59.1226C66.6417 59.0591 66.6644 59.0001 66.7098 58.9457C66.7552 58.9003 66.8142 58.8777 66.8868 58.8777H69.1472C69.2199 58.8777 69.2789 58.9003 69.3243 58.9457C69.3696 59.0001 69.3923 59.0591 69.3923 59.1226V59.1362C69.3923 59.4446 69.5603 59.7031 69.8962 59.9118C70.2321 60.1204 70.6496 60.2247 71.1489 60.2247C71.6119 60.2247 71.9887 60.134 72.2791 59.9526C72.5606 59.7621 72.7013 59.5353 72.7013 59.2723C72.7013 59.0273 72.5787 58.8414 72.3336 58.7144C72.0885 58.5965 71.6891 58.4695 71.1353 58.3334C70.4908 58.1701 69.9869 58.0114 69.6238 57.8572C68.7523 57.5578 68.0579 57.1904 67.5404 56.755C67.023 56.3196 66.7643 55.6937 66.7643 54.8773C66.7643 53.8704 67.1546 53.0722 67.9353 52.4826C68.716 51.893 69.7555 51.5982 71.0536 51.5982C71.9251 51.5982 72.6877 51.7342 73.3413 52.0064C73.9949 52.2876 74.5033 52.6821 74.8664 53.1901C75.2204 53.689 75.3974 54.2605 75.3974 54.9045C75.3974 54.968 75.3747 55.0225 75.3294 55.0678C75.284 55.1132 75.225 55.1359 75.1523 55.1359H72.9736C72.901 55.1359 72.842 55.1132 72.7966 55.0678C72.7512 55.0225 72.7285 54.968 72.7285 54.9045C72.7285 54.6052 72.5742 54.3512 72.2655 54.1426C71.9569 53.9339 71.5529 53.8296 71.0536 53.8296C70.5997 53.8296 70.2321 53.9158 69.9506 54.0882C69.6601 54.2514 69.5149 54.4737 69.5149 54.7549C69.5149 55.027 69.6556 55.2311 69.937 55.3672C70.2184 55.5032 70.686 55.6484 71.3396 55.8026C71.4848 55.8389 71.6528 55.8797 71.8434 55.925C72.034 55.9704 72.2383 56.0294 72.4562 56.1019C73.4275 56.3922 74.1901 56.7596 74.7438 57.2041C75.3067 57.6576 75.5881 58.3107 75.5881 59.1634C75.5881 60.1703 75.1886 60.9549 74.3898 61.5173C73.5909 62.0797 72.5197 62.3609 71.1762 62.3609ZM83.2408 53.8024C83.2408 53.8659 83.2182 53.9203 83.1728 53.9657C83.1274 54.0201 83.0684 54.0473 82.9957 54.0473H81.0349C80.9713 54.0473 80.9396 54.0791 80.9396 54.1426V58.4695C80.9396 58.9139 81.0303 59.2496 81.2119 59.4763C81.3935 59.6941 81.693 59.8029 82.1106 59.8029H82.7779C82.8414 59.8029 82.9004 59.8256 82.9549 59.8709C83.0003 59.9163 83.023 59.9753 83.023 60.0478V61.98C83.023 62.1342 82.9413 62.2203 82.7779 62.2385C82.206 62.2657 81.7974 62.2793 81.5523 62.2793C80.4176 62.2793 79.5733 62.0933 79.0196 61.7214C78.4567 61.3495 78.1708 60.6465 78.1617 59.6124V54.1426C78.1617 54.0791 78.1254 54.0473 78.0528 54.0473H76.8953C76.8227 54.0473 76.7637 54.0201 76.7183 53.9657C76.6729 53.9203 76.6502 53.8659 76.6502 53.8024V51.9791C76.6502 51.9156 76.6729 51.8567 76.7183 51.8023C76.7637 51.7569 76.8227 51.7342 76.8953 51.7342H78.0528C78.1254 51.7342 78.1617 51.6979 78.1617 51.6254V49.2034C78.1617 49.1399 78.1844 49.0809 78.2298 49.0265C78.2752 48.9812 78.3342 48.9585 78.4068 48.9585H80.6945C80.758 48.9585 80.817 48.9812 80.8715 49.0265C80.9169 49.0809 80.9396 49.1399 80.9396 49.2034V51.6254C80.9396 51.6979 80.9713 51.7342 81.0349 51.7342H82.9957C83.0684 51.7342 83.1274 51.7569 83.1728 51.8023C83.2182 51.8567 83.2408 51.9156 83.2408 51.9791V53.8024Z" fill="#252530"/>
<path d="M45.1268 103.698C44.4187 103.698 43.8014 103.584 43.2749 103.357C42.7483 103.131 42.3398 102.813 42.0493 102.405C41.7679 101.997 41.6272 101.516 41.6272 100.963V100.623C41.6272 100.577 41.6454 100.536 41.6817 100.5C41.7089 100.473 41.7452 100.459 41.7906 100.459H43.0025C43.0479 100.459 43.0888 100.473 43.1251 100.5C43.1523 100.536 43.1659 100.577 43.1659 100.623V100.881C43.1659 101.298 43.352 101.643 43.7242 101.915C44.0964 102.196 44.6048 102.337 45.2493 102.337C45.8031 102.337 46.2207 102.219 46.5021 101.983C46.7835 101.747 46.9242 101.443 46.9242 101.072C46.9242 100.818 46.8471 100.6 46.6927 100.418C46.5384 100.246 46.3205 100.087 46.0391 99.9422C45.7486 99.7971 45.3174 99.6157 44.7455 99.398C44.101 99.1621 43.579 98.9399 43.1795 98.7313C42.7801 98.5226 42.4488 98.2369 42.1855 97.874C41.9132 97.5203 41.777 97.0758 41.777 96.5406C41.777 95.7423 42.0675 95.1119 42.6485 94.6493C43.2295 94.1867 44.0056 93.9554 44.977 93.9554C45.6578 93.9554 46.2615 94.0733 46.788 94.3091C47.3055 94.545 47.7095 94.8761 48 95.3024C48.2905 95.7197 48.4357 96.205 48.4357 96.7583V96.9896C48.4357 97.035 48.4176 97.0758 48.3812 97.1121C48.354 97.1393 48.3177 97.1529 48.2723 97.1529H47.0468C47.0014 97.1529 46.9651 97.1393 46.9378 97.1121C46.9015 97.0758 46.8834 97.035 46.8834 96.9896V96.8399C46.8834 96.4136 46.7109 96.0553 46.3659 95.765C46.0119 95.4657 45.5262 95.316 44.9089 95.316C44.4096 95.316 44.0238 95.4203 43.7515 95.629C43.47 95.8376 43.3293 96.1324 43.3293 96.5134C43.3293 96.7855 43.4019 97.0078 43.5472 97.1801C43.6924 97.3525 43.9103 97.5067 44.2008 97.6427C44.4913 97.7879 44.9407 97.9693 45.5489 98.187C46.1934 98.4319 46.7109 98.6541 47.1012 98.8537C47.4825 99.0533 47.8139 99.3299 48.0953 99.6837C48.3676 100.047 48.5038 100.496 48.5038 101.031C48.5038 101.847 48.1997 102.496 47.5915 102.976C46.9923 103.457 46.1707 103.698 45.1268 103.698ZM53.9234 94.0506C54.4953 94.0506 54.9991 94.1685 55.4349 94.4044C55.8706 94.6402 56.2065 94.9713 56.4425 95.3976C56.6876 95.8331 56.8102 96.332 56.8102 96.8944C56.8102 97.4477 56.6876 97.9375 56.4425 98.3639C56.1974 98.7902 55.8524 99.1168 55.4076 99.3435C54.9537 99.5794 54.4317 99.6973 53.8417 99.6973H51.6629C51.6175 99.6973 51.5949 99.72 51.5949 99.7653V103.426C51.5949 103.471 51.5812 103.507 51.554 103.534C51.5177 103.571 51.4768 103.589 51.4315 103.589H50.1787C50.1333 103.589 50.097 103.571 50.0698 103.534C50.0334 103.507 50.0153 103.471 50.0153 103.426V94.2139C50.0153 94.1685 50.0334 94.1277 50.0698 94.0914C50.097 94.0642 50.1333 94.0506 50.1787 94.0506H53.9234ZM53.6919 98.4183C54.1549 98.4183 54.5271 98.2822 54.8085 98.0101C55.0899 97.738 55.2306 97.3797 55.2306 96.9352C55.2306 96.4816 55.0899 96.1143 54.8085 95.8331C54.5271 95.5519 54.1549 95.4113 53.6919 95.4113H51.6629C51.6175 95.4113 51.5949 95.4339 51.5949 95.4793V98.3503C51.5949 98.3956 51.6175 98.4183 51.6629 98.4183H53.6919ZM63.5506 103.589C63.4598 103.589 63.3963 103.548 63.36 103.466L61.5625 99.5476C61.5444 99.5114 61.5171 99.4932 61.4808 99.4932H59.8468C59.8014 99.4932 59.7787 99.5159 59.7787 99.5613V103.426C59.7787 103.471 59.7605 103.507 59.7242 103.534C59.697 103.571 59.6607 103.589 59.6153 103.589H58.3625C58.3171 103.589 58.2808 103.571 58.2536 103.534C58.2173 103.507 58.1991 103.471 58.1991 103.426V94.2275C58.1991 94.1821 58.2173 94.1458 58.2536 94.1186C58.2808 94.0824 58.3171 94.0642 58.3625 94.0642H62.1072C62.661 94.0642 63.1512 94.1776 63.5778 94.4044C64.0045 94.6402 64.3358 94.9668 64.5719 95.384C64.8079 95.8104 64.9259 96.2957 64.9259 96.8399C64.9259 97.4658 64.7671 97.9965 64.4493 98.4319C64.1225 98.8764 63.6732 99.1848 63.1012 99.3572C63.0831 99.3572 63.0695 99.3662 63.0604 99.3844C63.0513 99.4025 63.0513 99.4207 63.0604 99.4388L64.9804 103.398C64.9985 103.435 65.0076 103.462 65.0076 103.48C65.0076 103.553 64.9577 103.589 64.8578 103.589H63.5506ZM59.8468 95.4249C59.8014 95.4249 59.7787 95.4475 59.7787 95.4929V98.2006C59.7787 98.246 59.8014 98.2686 59.8468 98.2686H61.8893C62.3251 98.2686 62.6746 98.1371 62.9378 97.874C63.2102 97.62 63.3463 97.2799 63.3463 96.8535C63.3463 96.4272 63.2102 96.0825 62.9378 95.8195C62.6746 95.5564 62.3251 95.4249 61.8893 95.4249H59.8468ZM66.7098 103.589C66.6644 103.589 66.6235 103.571 66.5872 103.534C66.56 103.507 66.5463 103.471 66.5463 103.426V94.2275C66.5463 94.1821 66.56 94.1458 66.5872 94.1186C66.6235 94.0824 66.6644 94.0642 66.7098 94.0642H67.9625C68.0079 94.0642 68.0442 94.0824 68.0715 94.1186C68.1078 94.1458 68.1259 94.1821 68.1259 94.2275V103.426C68.1259 103.471 68.1078 103.507 68.0715 103.534C68.0442 103.571 68.0079 103.589 67.9625 103.589H66.7098ZM75.6561 94.2275C75.6561 94.1821 75.6743 94.1458 75.7106 94.1186C75.7378 94.0824 75.7741 94.0642 75.8195 94.0642H77.0723C77.1177 94.0642 77.1585 94.0824 77.1949 94.1186C77.2221 94.1458 77.2357 94.1821 77.2357 94.2275V103.426C77.2357 103.471 77.2221 103.507 77.1949 103.534C77.1585 103.571 77.1177 103.589 77.0723 103.589H75.8604C75.7696 103.589 75.7061 103.553 75.6698 103.48L71.748 97.0576C71.7299 97.0304 71.7117 97.0168 71.6936 97.0168C71.6754 97.0259 71.6663 97.0486 71.6663 97.0849L71.6936 103.426C71.6936 103.471 71.6754 103.507 71.6391 103.534C71.6119 103.571 71.5756 103.589 71.5302 103.589H70.2774C70.232 103.589 70.1957 103.571 70.1685 103.534C70.1322 103.507 70.114 103.471 70.114 103.426V94.2275C70.114 94.1821 70.1322 94.1458 70.1685 94.1186C70.1957 94.0824 70.232 94.0642 70.2774 94.0642H71.4893C71.5801 94.0642 71.6437 94.1005 71.68 94.1731L75.588 100.595C75.6062 100.623 75.6244 100.632 75.6425 100.623C75.6607 100.623 75.6698 100.604 75.6698 100.568L75.6561 94.2275ZM82.4102 103.698C81.7293 103.698 81.1302 103.566 80.6127 103.303C80.0953 103.031 79.6959 102.65 79.4144 102.16C79.133 101.67 78.9923 101.108 78.9923 100.473V97.1801C78.9923 96.5361 79.133 95.9691 79.4144 95.4793C79.6959 94.9985 80.0953 94.6221 80.6127 94.3499C81.1302 94.0869 81.7293 93.9554 82.4102 93.9554C83.0819 93.9554 83.6766 94.0869 84.194 94.3499C84.7024 94.613 85.0973 94.9713 85.3787 95.4249C85.6601 95.8784 85.8008 96.3909 85.8008 96.9624V97.0713C85.8008 97.1166 85.7872 97.1529 85.76 97.1801C85.7236 97.2164 85.6828 97.2345 85.6374 97.2345H84.3983C84.3529 97.2345 84.3166 97.2164 84.2893 97.1801C84.253 97.1529 84.2349 97.1166 84.2349 97.0713V97.0032C84.2349 96.5134 84.0669 96.1097 83.731 95.7922C83.4042 95.4747 82.9639 95.316 82.4102 95.316C81.8564 95.316 81.4116 95.4838 81.0757 95.8195C80.7398 96.146 80.5719 96.5814 80.5719 97.1257V100.527C80.5719 101.072 80.7489 101.512 81.1029 101.847C81.457 102.174 81.9154 102.337 82.4783 102.337C83.0229 102.337 83.4541 102.192 83.7719 101.902C84.0805 101.62 84.2349 101.23 84.2349 100.731V99.8878C84.2349 99.8425 84.2122 99.8198 84.1668 99.8198H82.4919C82.4465 99.8198 82.4056 99.8016 82.3693 99.7653C82.3421 99.7381 82.3285 99.7019 82.3285 99.6565V98.6496C82.3285 98.6043 82.3421 98.568 82.3693 98.5408C82.4056 98.5045 82.4465 98.4863 82.4919 98.4863H85.6374C85.6828 98.4863 85.7236 98.5045 85.76 98.5408C85.7872 98.568 85.8008 98.6043 85.8008 98.6496V100.391C85.8008 101.434 85.4967 102.246 84.8885 102.827C84.2712 103.407 83.4451 103.698 82.4102 103.698Z" fill="white"/>
<path d="M46.3387 128.162C46.3115 128.189 46.3024 128.217 46.3115 128.244C46.3296 128.271 46.3569 128.285 46.3932 128.285H51.7447C51.8082 128.285 51.8627 128.307 51.9081 128.353C51.9625 128.398 51.9898 128.453 51.9898 128.516V130.435C51.9898 130.498 51.9625 130.552 51.9081 130.598C51.8627 130.643 51.8082 130.666 51.7447 130.666H42.8664C42.7937 130.666 42.7347 130.643 42.6893 130.598C42.6439 130.552 42.6213 130.498 42.6213 130.435V128.611C42.6213 128.493 42.6621 128.394 42.7438 128.312C43.3883 127.686 44.0465 127.001 44.7183 126.257C45.39 125.514 45.8122 125.051 45.9847 124.869C46.3478 124.434 46.72 124.017 47.1013 123.618C48.2996 122.293 48.8987 121.309 48.8987 120.665C48.8987 120.202 48.7353 119.821 48.4085 119.522C48.0817 119.232 47.655 119.087 47.1285 119.087C46.602 119.087 46.1753 119.232 45.8485 119.522C45.5126 119.821 45.3447 120.216 45.3447 120.706V121.196C45.3447 121.259 45.322 121.314 45.2766 121.359C45.2312 121.404 45.1767 121.427 45.1132 121.427H42.7847C42.7211 121.427 42.6666 121.404 42.6213 121.359C42.5668 121.314 42.5396 121.259 42.5396 121.196V120.27C42.5849 119.563 42.8119 118.932 43.2204 118.379C43.6289 117.835 44.1691 117.418 44.8408 117.127C45.5217 116.837 46.2842 116.692 47.1285 116.692C48.0635 116.692 48.876 116.869 49.5659 117.223C50.2559 117.567 50.7869 118.034 51.1591 118.624C51.5404 119.223 51.731 119.88 51.731 120.597C51.731 121.15 51.5903 121.717 51.3089 122.298C51.0366 122.878 50.6235 123.504 50.0698 124.176C49.6613 124.684 49.221 125.191 48.7489 125.699C48.2769 126.198 47.5733 126.92 46.6383 127.863L46.3387 128.162ZM58.4034 130.884C56.9509 130.884 55.8071 130.48 54.9719 129.673C54.1276 128.865 53.7055 127.763 53.7055 126.366V121.155C53.7055 119.785 54.1276 118.701 54.9719 117.903C55.8071 117.096 56.9509 116.692 58.4034 116.692C59.8468 116.692 60.9952 117.096 61.8485 117.903C62.6927 118.701 63.1149 119.785 63.1149 121.155V126.366C63.1149 127.763 62.6927 128.865 61.8485 129.673C60.9952 130.48 59.8468 130.884 58.4034 130.884ZM58.4034 128.502C58.9935 128.502 59.461 128.321 59.8059 127.958C60.16 127.595 60.337 127.11 60.337 126.502V121.073C60.337 120.475 60.16 119.994 59.8059 119.631C59.461 119.268 58.9935 119.087 58.4034 119.087C57.8224 119.087 57.3594 119.268 57.0144 119.631C56.6604 119.994 56.4834 120.475 56.4834 121.073V126.502C56.4834 127.11 56.6604 127.595 57.0144 127.958C57.3594 128.321 57.8224 128.502 58.4034 128.502ZM68.6434 128.162C68.6161 128.189 68.6116 128.217 68.6298 128.244C68.6388 128.271 68.6661 128.285 68.7115 128.285H74.063C74.1265 128.285 74.181 128.307 74.2264 128.353C74.2717 128.398 74.2944 128.453 74.2944 128.516V130.435C74.2944 130.498 74.2717 130.552 74.2264 130.598C74.181 130.643 74.1265 130.666 74.063 130.666H65.171C65.1075 130.666 65.053 130.643 65.0076 130.598C64.9622 130.552 64.9395 130.498 64.9395 130.435V128.611C64.9395 128.493 64.9759 128.394 65.0485 128.312C65.7021 127.686 66.3603 127.001 67.023 126.257C67.6947 125.514 68.1169 125.051 68.2893 124.869C68.6615 124.434 69.0383 124.017 69.4195 123.618C70.6178 122.293 71.217 121.309 71.217 120.665C71.217 120.202 71.0536 119.821 70.7268 119.522C70.3909 119.232 69.9597 119.087 69.4332 119.087C68.9066 119.087 68.48 119.232 68.1532 119.522C67.8264 119.821 67.663 120.216 67.663 120.706V121.196C67.663 121.259 67.6403 121.314 67.5949 121.359C67.5495 121.404 67.4905 121.427 67.4178 121.427H65.0893C65.0258 121.427 64.9713 121.404 64.9259 121.359C64.8805 121.314 64.8578 121.259 64.8578 121.196V120.27C64.8942 119.563 65.1166 118.932 65.5251 118.379C65.9336 117.835 66.4783 117.418 67.1591 117.127C67.84 116.837 68.598 116.692 69.4332 116.692C70.3682 116.692 71.1807 116.869 71.8706 117.223C72.5696 117.567 73.1052 118.034 73.4774 118.624C73.8496 119.223 74.0357 119.88 74.0357 120.597C74.0357 121.15 73.8995 121.717 73.6272 122.298C73.3458 122.878 72.9282 123.504 72.3744 124.176C71.9659 124.684 71.5257 125.191 71.0536 125.699C70.5815 126.198 69.878 126.92 68.943 127.863L68.6434 128.162ZM84.2485 124.08C84.5117 124.679 84.6434 125.373 84.6434 126.162C84.6434 126.879 84.5254 127.536 84.2893 128.135C83.9716 128.979 83.4405 129.636 82.6961 130.108C81.9517 130.589 81.0712 130.829 80.0544 130.829C79.0559 130.829 78.1798 130.58 77.4264 130.081C76.6729 129.573 76.1282 128.892 75.7923 128.04C75.6108 127.532 75.5064 126.978 75.4791 126.38C75.4791 126.226 75.5563 126.148 75.7106 126.148H78.0527C78.2071 126.148 78.2842 126.226 78.2842 126.38C78.3387 126.815 78.4113 127.137 78.5021 127.346C78.6201 127.691 78.8153 127.958 79.0876 128.149C79.3509 128.339 79.6686 128.434 80.0408 128.434C80.7761 128.434 81.2845 128.112 81.5659 127.468C81.7475 127.078 81.8383 126.62 81.8383 126.094C81.8383 125.468 81.7384 124.96 81.5387 124.57C81.2391 123.953 80.7353 123.645 80.0272 123.645C79.882 123.645 79.7276 123.686 79.5642 123.767C79.4099 123.858 79.2193 123.981 78.9923 124.135C78.9378 124.171 78.8879 124.189 78.8425 124.189C78.7608 124.189 78.7018 124.153 78.6655 124.08L77.4944 122.434C77.4672 122.398 77.4536 122.352 77.4536 122.298C77.4536 122.216 77.4808 122.153 77.5353 122.107L80.6672 119.359C80.6944 119.332 80.7081 119.304 80.7081 119.277C80.699 119.25 80.6763 119.236 80.64 119.236H75.9966C75.933 119.236 75.874 119.214 75.8195 119.168C75.7742 119.123 75.7515 119.069 75.7515 119.005V117.087C75.7515 117.023 75.7742 116.969 75.8195 116.923C75.874 116.878 75.933 116.855 75.9966 116.855H84.2212C84.2939 116.855 84.3529 116.878 84.3983 116.923C84.4437 116.969 84.4664 117.023 84.4664 117.087V119.264C84.4664 119.363 84.421 119.463 84.3302 119.563L81.743 121.93C81.7157 121.958 81.7066 121.98 81.7157 121.998C81.7157 122.026 81.743 122.039 81.7974 122.039C82.9412 122.266 83.7583 122.946 84.2485 124.08Z" fill="#252530"/>
</svg>
