<svg width="268" height="358" viewBox="0 0 268 358" fill="none" xmlns="http://www.w3.org/2000/svg">
<path opacity="0.7" d="M9.06991 319.511C70.8628 354.958 151.242 346.317 203.974 293.585C267.04 230.519 267.04 127.904 203.974 64.8373C172.441 33.3042 131.019 17.5385 89.5997 17.5366" stroke="url(#paint0_linear_289_7783)" stroke-width="33.34" stroke-miterlimit="10" stroke-dasharray="4 8"/>
<defs>
<linearGradient id="paint0_linear_289_7783" x1="-13.79" y1="319.624" x2="234.388" y2="71.4465" gradientUnits="userSpaceOnUse">
<stop offset="0.325" stop-color="#10AEAE" stop-opacity="0.61"/>
<stop offset="0.9096" stop-color="#6FD7C6"/>
</linearGradient>
</defs>
</svg>
