<svg width="33" height="28" viewBox="0 0 33 28" fill="none" xmlns="http://www.w3.org/2000/svg">
<path d="M7.52 27.6C5.06667 27.6 3.2 26.6667 1.92 24.8C0.64 22.9333 0 20.3733 0 17.12C0 13.3333 0.933333 10 2.8 7.12C4.66667 4.24 7.52 1.86667 11.36 0L13.92 5.12C11.52 6.29333 9.70667 7.70667 8.48 9.36C7.30667 10.96 6.72 12.9333 6.72 15.28C6.82667 15.2267 6.96 15.2 7.12 15.2C7.28 15.2 7.41333 15.2 7.52 15.2C9.22667 15.2 10.6667 15.7333 11.84 16.8C13.0667 17.8133 13.68 19.2267 13.68 21.04C13.68 23.0133 13.0933 24.6133 11.92 25.84C10.7467 27.0133 9.28 27.6 7.52 27.6ZM26.48 27.6C24.0267 27.6 22.16 26.6667 20.88 24.8C19.6 22.9333 18.96 20.3733 18.96 17.12C18.96 13.3333 19.8933 10 21.76 7.12C23.6267 4.24 26.48 1.86667 30.32 0L32.88 5.12C30.48 6.29333 28.6667 7.70667 27.44 9.36C26.2667 10.96 25.68 12.9333 25.68 15.28C25.7867 15.2267 25.92 15.2 26.08 15.2C26.24 15.2 26.3733 15.2 26.48 15.2C28.1867 15.2 29.6267 15.7333 30.8 16.8C32.0267 17.8133 32.64 19.2267 32.64 21.04C32.64 23.0133 32.0533 24.6133 30.88 25.84C29.7067 27.0133 28.24 27.6 26.48 27.6Z" fill="#A989F5"/>
</svg>
