<svg width="101" height="56" viewBox="0 0 101 56" fill="none" xmlns="http://www.w3.org/2000/svg">
<mask id="mask0_117_5171" style="mask-type:luminance" maskUnits="userSpaceOnUse" x="2" y="3" width="97" height="51">
<path d="M2.49951 28.1354C2.49951 41.89 23.9903 53.0407 50.4995 53.0407C77.0087 53.0407 98.4995 41.89 98.4995 28.1354C98.4995 14.3809 77.0087 3.23021 50.4995 3.23021C23.9903 3.23021 2.49951 14.3811 2.49951 28.1354Z" fill="white"/>
</mask>
<g mask="url(#mask0_117_5171)">
<path d="M2.49951 28.1354C2.49951 41.89 23.9903 53.0407 50.4995 53.0407C77.0087 53.0407 98.4995 41.89 98.4995 28.1354C98.4995 14.3809 77.0087 3.23021 50.4995 3.23021C23.9903 3.23021 2.49951 14.3811 2.49951 28.1354Z" fill="url(#paint0_radial_117_5171)"/>
</g>
<mask id="mask1_117_5171" style="mask-type:luminance" maskUnits="userSpaceOnUse" x="0" y="0" width="101" height="56">
<path d="M0.499512 0.394321H100.5V55.8763H0.499512V0.394321Z" fill="white"/>
</mask>
<g mask="url(#mask1_117_5171)">
<path d="M50.4995 51.1912C75.9735 51.1912 96.6245 40.8688 96.6245 28.1354C96.6245 15.4019 75.9735 5.07954 50.4995 5.07954C25.0256 5.07954 4.37451 15.4019 4.37451 28.1354C4.37451 40.8688 25.0256 51.1912 50.4995 51.1912Z" fill="#777BB3"/>
</g>
<mask id="mask2_117_5171" style="mask-type:luminance" maskUnits="userSpaceOnUse" x="0" y="0" width="101" height="56">
<path d="M0.499512 0.394321H100.5V55.8763H0.499512V0.394321Z" fill="white"/>
</mask>
<g mask="url(#mask2_117_5171)">
<path d="M28.5777 30.9939C30.6723 30.9939 32.236 30.6129 33.2252 29.862C34.2041 29.1188 34.8801 27.8308 35.2344 26.0343C35.5648 24.3551 35.439 23.1826 34.8605 22.5499C34.269 21.9036 32.9902 21.5759 31.0596 21.5759H27.7124L25.8565 30.9941H28.5775L28.5777 30.9939ZM17.6291 42.5955C17.4737 42.5955 17.3261 42.527 17.2273 42.4085C17.1785 42.35 17.1433 42.2816 17.1244 42.2082C17.1055 42.1348 17.1033 42.0582 17.1179 41.9838L22.036 17.0255C22.0591 16.9085 22.1227 16.803 22.216 16.7272C22.3093 16.6513 22.4264 16.6099 22.5473 16.6099H33.1469C36.4782 16.6099 38.9577 17.5003 40.5162 19.2619C42.0831 21.0308 42.5669 23.5039 41.9542 26.6115C41.7049 27.8777 41.2761 29.0534 40.6799 30.1066C40.0827 31.1605 39.2938 32.1358 38.3344 33.0057C37.1858 34.066 35.8858 34.8349 34.474 35.2873C33.0846 35.7337 31.3004 35.9603 29.1706 35.9603H24.8785L23.6528 42.1801C23.6298 42.2971 23.5662 42.4026 23.473 42.4784C23.3797 42.5543 23.2626 42.5958 23.1417 42.5958H17.6291V42.5955Z" fill="black"/>
<path d="M28.1424 22.0894H31.0604C33.3903 22.0894 34.1999 22.5937 34.4749 22.8943C34.9311 23.3932 35.0172 24.4453 34.724 25.9367C34.3945 27.6063 33.7837 28.7901 32.9084 29.4548C32.0122 30.1353 30.5552 30.4802 28.5785 30.4802H26.4889L28.1424 22.0894ZM33.1476 16.096H22.5479C22.3062 16.096 22.072 16.179 21.8854 16.3307C21.6989 16.4824 21.5717 16.6933 21.5255 16.9274L16.6075 41.886C16.5782 42.0348 16.5826 42.1881 16.6204 42.3349C16.6583 42.4818 16.7286 42.6185 16.8263 42.7355C16.924 42.8524 17.0467 42.9465 17.1856 43.0112C17.3246 43.0758 17.4763 43.1094 17.6299 43.1094H23.142C23.3838 43.1094 23.6181 43.0264 23.8046 42.8748C23.9912 42.7231 24.1185 42.5121 24.1646 42.278L25.3084 36.4738H29.1712C31.3556 36.4738 33.1945 36.2389 34.6365 35.7757C36.1191 35.3005 37.4837 34.4948 38.691 33.381C39.6896 32.4748 40.5139 31.4576 41.1354 30.3574C41.757 29.2572 42.2066 28.0296 42.4667 26.7097C43.1117 23.4383 42.5877 20.8186 40.9094 18.924C39.2476 17.0476 36.6361 16.0962 33.1479 16.0962M25.2255 31.5078H28.5785C30.8007 31.5078 32.4563 31.0951 33.5438 30.2691C34.6313 29.443 35.3653 28.0643 35.7466 26.1324C36.1111 24.2775 35.9452 22.9686 35.2483 22.2059C34.5514 21.4432 33.1545 21.062 31.0608 21.062H27.2841L25.2257 31.5077M33.1481 17.1234C36.3368 17.1234 38.663 17.9488 40.1252 19.5996C41.5874 21.2503 42.0275 23.5549 41.4441 26.5134C41.204 27.7321 40.7979 28.8464 40.2262 29.856C39.6545 30.8657 38.9064 31.7899 37.9828 32.6274C36.8821 33.6434 35.6594 34.3672 34.3139 34.7987C32.9684 35.2311 31.2549 35.4464 29.1716 35.4464H24.45L23.1427 42.0819H17.6306L22.5479 17.1234H33.1478" fill="white"/>
<path d="M54.5933 35.9599C54.4378 35.9599 54.2904 35.8914 54.1916 35.7729C54.0928 35.6544 54.0524 35.4989 54.0822 35.3482L56.2576 24.3049C56.4645 23.2547 56.4135 22.5009 56.114 22.1824C55.9307 21.9877 55.38 21.6611 53.7517 21.6611H49.8103L47.0751 35.544C47.052 35.661 46.9884 35.7665 46.8951 35.8424C46.8018 35.9183 46.6847 35.9597 46.5638 35.9597H41.0951C41.0182 35.9597 40.9424 35.943 40.8729 35.9107C40.8034 35.8784 40.7421 35.8313 40.6932 35.7728C40.6443 35.7144 40.6092 35.646 40.5903 35.5725C40.5713 35.4991 40.5691 35.4224 40.5838 35.3481L45.5018 10.3897C45.5249 10.2727 45.5886 10.1673 45.6818 10.0914C45.7751 10.0156 45.8922 9.97414 46.0131 9.97415H51.4819C51.5587 9.97415 51.6345 9.99091 51.704 10.0232C51.7735 10.0555 51.8349 10.1026 51.8837 10.1611C51.9326 10.2195 51.9677 10.2879 51.9867 10.3614C52.0056 10.4348 52.0078 10.5114 51.9931 10.5858L50.8063 16.6097H55.0463C58.2763 16.6097 60.4664 17.1714 61.7425 18.3269C63.0445 19.5057 63.4485 21.3904 62.9485 23.9299L60.6603 35.5443C60.6373 35.6614 60.5737 35.7669 60.4804 35.8427C60.3871 35.9186 60.27 35.9601 60.1491 35.9601H54.5935L54.5933 35.9599Z" fill="black"/>
<path d="M51.4817 9.46038H46.013C45.7712 9.46037 45.5369 9.54332 45.3504 9.695C45.1638 9.84669 45.0365 10.0577 44.9904 10.2918L40.0723 35.2501C40.043 35.3988 40.0475 35.5521 40.0853 35.699C40.1231 35.8459 40.1934 35.9827 40.2912 36.0996C40.3889 36.2165 40.5116 36.3106 40.6506 36.3753C40.7895 36.4399 40.9413 36.4734 41.0949 36.4734H46.5637C46.8054 36.4734 47.0397 36.3905 47.2263 36.2388C47.4128 36.0871 47.5401 35.8761 47.5862 35.642L50.2395 22.1748H53.7517C55.3772 22.1748 55.7183 22.5173 55.7321 22.532C55.8307 22.6365 55.9604 23.1211 55.7463 24.2068L53.5709 35.2501C53.5416 35.3988 53.5461 35.5521 53.5839 35.699C53.6217 35.8459 53.692 35.9827 53.7898 36.0996C53.8875 36.2165 54.0102 36.3106 54.1492 36.3753C54.2882 36.4399 54.4399 36.4734 54.5935 36.4734H60.1491C60.3908 36.4734 60.6251 36.3905 60.8117 36.2388C60.9982 36.0871 61.1255 35.8761 61.1716 35.642L63.4598 24.0276C63.9968 21.3015 63.5374 19.2562 62.0952 17.9486C60.7189 16.702 58.4133 16.0958 55.0466 16.0958H51.4383L52.5048 10.6837C52.5341 10.535 52.5297 10.3816 52.4919 10.2348C52.4541 10.0879 52.3838 9.95105 52.286 9.83411C52.1883 9.71718 52.0656 9.62301 51.9266 9.55837C51.7876 9.49372 51.6359 9.4602 51.4822 9.46021M51.4822 10.4877L50.1749 17.1232H55.0468C58.1123 17.1232 60.2267 17.651 61.3906 18.7051C62.5544 19.7593 62.9027 21.469 62.4378 23.8318L60.1496 35.446H54.594L56.7694 24.403C57.017 23.1468 56.926 22.2899 56.4961 21.833C56.0663 21.3762 55.1513 21.1474 53.7522 21.1474H49.381L46.564 35.446H41.0952L46.0133 10.4877H51.4821" fill="white"/>
<path d="M71.6014 30.9939C73.696 30.9939 75.2597 30.6129 76.249 29.862C77.2278 29.1188 77.9038 27.8311 78.2583 26.0343C78.5887 24.3551 78.4629 23.1826 77.8842 22.5499C77.2927 21.9036 76.0139 21.5759 74.0833 21.5759H70.7361L68.8802 30.9941H71.6012L71.6014 30.9939ZM60.6531 42.5955C60.4977 42.5955 60.3502 42.527 60.2514 42.4085C60.2025 42.35 60.1673 42.2817 60.1484 42.2082C60.1295 42.1348 60.1272 42.0582 60.1418 41.9838L65.0599 17.0255C65.083 16.9084 65.1467 16.8029 65.24 16.7271C65.3333 16.6513 65.4504 16.6098 65.5714 16.6099H76.1708C79.5024 16.6099 81.9816 17.5003 83.5403 19.2619C85.1071 21.0308 85.5906 23.5035 84.9783 26.6115C84.7286 27.8777 84.3 29.0534 83.7036 30.1066C83.1064 31.1605 82.3175 32.1358 81.3582 33.0057C80.2095 34.066 78.9095 34.8349 77.4977 35.2873C76.1083 35.7337 74.3241 35.9603 72.1943 35.9603H67.9017L66.6766 42.1801C66.6535 42.2971 66.5899 42.4027 66.4965 42.4785C66.4032 42.5544 66.286 42.5959 66.1651 42.5958H60.653L60.6531 42.5955Z" fill="black"/>
<path d="M71.1656 22.0894H74.0837C76.4136 22.0894 77.2231 22.5937 77.4981 22.8943C77.9547 23.3932 78.0406 24.4453 77.7472 25.9365C77.4177 27.6061 76.8068 28.7901 75.9316 29.4548C75.0354 30.1353 73.5785 30.4802 71.6018 30.4802H69.5127L71.1656 22.0894ZM76.1709 16.096H65.5712C65.3295 16.096 65.0952 16.179 64.9087 16.3307C64.7222 16.4824 64.5949 16.6933 64.5488 16.9274L59.6309 41.886C59.6016 42.0348 59.6061 42.1881 59.6439 42.3349C59.6817 42.4818 59.752 42.6185 59.8497 42.7355C59.9474 42.8524 60.0701 42.9465 60.2091 43.0112C60.348 43.0758 60.4997 43.1094 60.6533 43.1094H66.1655C66.4073 43.1094 66.6415 43.0264 66.8281 42.8748C67.0146 42.7231 67.1419 42.5121 67.188 42.278L68.3316 36.4738H72.1945C74.3788 36.4738 76.2177 36.2389 77.6597 35.7757C79.1424 35.3005 80.507 34.4948 81.7146 33.3807C82.7132 32.4748 83.5354 31.4576 84.1587 30.3574C84.782 29.2572 85.2299 28.0296 85.49 26.7097C86.1349 23.4381 85.611 20.8185 83.9327 18.9239C82.2709 17.0476 79.6596 16.0962 76.1712 16.0962M68.249 31.5078H71.6018C73.824 31.5078 75.4795 31.0951 76.567 30.2691C77.6545 29.443 78.3886 28.0643 78.7698 26.1324C79.1347 24.2775 78.9686 22.9686 78.2716 22.2059C77.5745 21.4432 76.1778 21.062 74.0841 21.062H70.3073L68.2492 31.5077M76.1714 17.1234C79.3601 17.1234 81.6863 17.9488 83.1485 19.5996C84.6106 21.2503 85.0507 23.5549 84.4674 26.5134C84.2273 27.7321 83.8212 28.8464 83.2495 29.856C82.6778 30.8657 81.9297 31.7899 81.0061 32.6274C79.9054 33.6434 78.6827 34.3672 77.3372 34.7987C75.9917 35.2311 74.2781 35.4464 72.1948 35.4464H67.4733L66.166 42.0819H60.6538L65.5719 17.1236H76.1715" fill="white"/>
</g>
<defs>
<radialGradient id="paint0_radial_117_5171" cx="0" cy="0" r="1" gradientUnits="userSpaceOnUse" gradientTransform="translate(31.319 11.9862) scale(63.0309 62.1703)">
<stop stop-color="#AEB2D5"/>
<stop offset="0.3" stop-color="#AEB2D5"/>
<stop offset="0.75" stop-color="#484C89"/>
<stop offset="1" stop-color="#484C89"/>
</radialGradient>
</defs>
</svg>
