<svg width="65" height="65" viewBox="0 0 65 65" fill="none" xmlns="http://www.w3.org/2000/svg">
<path d="M30.4999 7.60868C30.4999 7.35891 30.5491 7.11158 30.6447 6.88082C30.7403 6.65005 30.8804 6.44038 31.057 6.26376C31.2336 6.08715 31.4433 5.94705 31.674 5.85146C31.9048 5.75588 32.1521 5.70668 32.4019 5.70668C32.6517 5.70668 32.899 5.75588 33.1298 5.85146C33.3605 5.94705 33.5702 6.08715 33.7468 6.26376C33.9234 6.44038 34.0635 6.65005 34.1591 6.88082C34.2547 7.11158 34.3039 7.35891 34.3039 7.60868C34.3039 8.11312 34.1035 8.5969 33.7468 8.9536C33.3901 9.31029 32.9063 9.51068 32.4019 9.51068C31.8975 9.51068 31.4137 9.31029 31.057 8.9536C30.7003 8.5969 30.4999 8.11312 30.4999 7.60868ZM7.80791 24.8287C7.80791 24.5789 7.8571 24.3316 7.95269 24.1008C8.04827 23.8701 8.18837 23.6604 8.36499 23.4838C8.54161 23.3071 8.75128 23.167 8.98204 23.0715C9.2128 22.9759 9.46013 22.9267 9.70991 22.9267C9.95968 22.9267 10.207 22.9759 10.4378 23.0715C10.6685 23.167 10.8782 23.3071 11.0548 23.4838C11.2314 23.6604 11.3715 23.8701 11.4671 24.1008C11.5627 24.3316 11.6119 24.5789 11.6119 24.8287C11.6119 25.3331 11.4115 25.8169 11.0548 26.1736C10.6981 26.5303 10.2143 26.7307 9.70991 26.7307C9.20547 26.7307 8.72168 26.5303 8.36499 26.1736C8.00829 25.8169 7.80791 25.3331 7.80791 24.8287ZM53.1919 24.9167C53.1919 24.4122 53.3923 23.9285 53.749 23.5718C54.1057 23.2151 54.5895 23.0147 55.0939 23.0147C55.5983 23.0147 56.0821 23.2151 56.4388 23.5718C56.7955 23.9285 56.9959 24.4122 56.9959 24.9167C56.9959 25.4211 56.7955 25.9049 56.4388 26.2616C56.0821 26.6183 55.5983 26.8187 55.0939 26.8187C54.5895 26.8187 54.1057 26.6183 53.749 26.2616C53.3923 25.9049 53.1919 25.4211 53.1919 24.9167ZM13.3119 27.5287C13.7322 27.341 14.061 26.9944 14.2263 26.5648C14.3916 26.1353 14.3799 25.6577 14.1939 25.2367L13.3499 23.3287H16.6699V38.2887H9.97191C9.14546 35.3854 8.88807 32.3497 9.21391 29.3487L13.3119 27.5287ZM27.1959 27.8967V23.4867H35.0999C35.5079 23.4867 37.9799 23.9587 37.9799 25.8067C37.9799 27.3427 36.0799 27.8947 34.5199 27.8947L27.1959 27.8967ZM16.4039 51.6387C16.4039 51.3889 16.4531 51.1416 16.5487 50.9108C16.6443 50.6801 16.7844 50.4704 16.961 50.2938C17.1376 50.1171 17.3473 49.9771 17.578 49.8815C17.8088 49.7859 18.0561 49.7367 18.3059 49.7367C18.5557 49.7367 18.803 49.7859 19.0338 49.8815C19.2645 49.9771 19.4742 50.1171 19.6508 50.2938C19.8274 50.4704 19.9675 50.6801 20.0631 50.9108C20.1587 51.1416 20.2079 51.3889 20.2079 51.6387C20.2079 52.1431 20.0075 52.6269 19.6508 52.9836C19.2941 53.3403 18.8103 53.5407 18.3059 53.5407C17.8015 53.5407 17.3177 53.3403 16.961 52.9836C16.6043 52.6269 16.4039 52.1431 16.4039 51.6387ZM44.5899 51.7267C44.5899 51.2222 44.7903 50.7385 45.147 50.3818C45.5037 50.0251 45.9875 49.8247 46.4919 49.8247C46.9963 49.8247 47.4801 50.0251 47.8368 50.3818C48.1935 50.7385 48.3939 51.2222 48.3939 51.7267C48.3939 52.2311 48.1935 52.7149 47.8368 53.0716C47.4801 53.4283 46.9963 53.6287 46.4919 53.6287C45.9875 53.6287 45.5037 53.4283 45.147 53.0716C44.7903 52.7149 44.5899 52.2311 44.5899 51.7267ZM45.1779 47.4127C44.2379 47.2127 43.3179 47.8087 43.1179 48.7467L42.1639 53.2027C39.0936 54.5933 35.7592 55.3048 32.3886 55.2886C29.0181 55.2724 25.6907 54.5288 22.6339 53.1087L21.6799 48.6527C21.4799 47.7127 20.5599 47.1167 19.6199 47.3187L15.6859 48.1627C14.955 47.4098 14.2754 46.6087 13.6519 45.7647H32.7919C33.0079 45.7647 33.1519 45.7247 33.1519 45.5287V38.7587C33.1519 38.5587 33.0079 38.5227 32.7919 38.5227H27.1919V34.2307H33.2459C33.7979 34.2307 36.1999 34.3907 36.9699 37.4587L38.0999 42.4587C38.4599 43.5587 39.9259 45.7647 41.4859 45.7647H51.3659C50.7028 46.6516 49.9777 47.4904 49.1959 48.2747L45.1779 47.4127ZM55.8059 29.5367C55.9404 30.888 55.9571 32.2485 55.8559 33.6027H53.4559C53.2159 33.6027 53.1159 33.7627 53.1159 33.9967V35.1007C53.1159 37.7007 51.6519 38.2607 50.3679 38.4067C49.1479 38.5467 47.7879 37.8947 47.6239 37.1467C46.9039 33.0907 45.7039 32.2267 43.8239 30.7267C46.1779 29.2307 48.6279 27.0267 48.6279 24.0727C48.6279 20.8847 46.4419 18.8767 44.9519 17.8927C42.8619 16.5127 40.5479 16.2387 39.9239 16.2387H15.0539C18.4892 12.4002 23.0943 9.80137 28.1559 8.84468L31.0859 11.9187C31.7459 12.6127 32.8459 12.6387 33.5379 11.9747L36.8179 8.84068C40.159 9.46628 43.3239 10.8117 46.0927 12.7834C48.8616 14.7551 51.168 17.3059 52.8519 20.2587L50.6079 25.3267C50.4219 25.7477 50.4102 26.2253 50.5755 26.6548C50.7409 27.0844 51.0696 27.431 51.4899 27.6187L55.8059 29.5367ZM61.4019 29.6167L61.3259 28.8327L63.6379 26.6767C64.1079 26.2367 63.9319 25.3567 63.3319 25.1327L60.3779 24.0287L60.1459 23.2687L61.9859 20.7087C62.3619 20.1887 62.0159 19.3587 61.3859 19.2547L58.2699 18.7487L57.8959 18.0487L59.2059 15.1747C59.4739 14.5887 58.9759 13.8407 58.3319 13.8647L55.1719 13.9747L54.6719 13.3687L55.3979 10.2887C55.5439 9.66268 54.9099 9.02868 54.2839 9.17468L51.2039 9.90068L50.5959 9.40068L50.7059 6.24068C50.7299 5.60068 49.9819 5.10068 49.3979 5.36668L46.5259 6.67668L45.8259 6.30068L45.3179 3.18468C45.2179 2.55268 44.3839 2.20868 43.8639 2.58468L41.3039 4.42468L40.5439 4.19468L39.4399 1.24068C39.2159 0.640679 38.3339 0.464679 37.8959 0.932679L35.7399 3.24468L34.9559 3.16868L33.2919 0.478679C32.9559 -0.0653213 32.0519 -0.0653213 31.7179 0.478679L30.0539 3.16868L29.2699 3.24468L27.1099 0.928679C26.6699 0.460679 25.7899 0.634679 25.5659 1.23668L24.4619 4.19068L23.7019 4.42068L21.1419 2.58068C20.6219 2.20468 19.7899 2.55068 19.6879 3.18068L19.1799 6.29668L18.4799 6.67268L15.6079 5.36268C15.0239 5.09668 14.2739 5.59668 14.2999 6.23668L14.4099 9.39668L13.8019 9.89668L10.7219 9.17068C10.0959 9.02468 9.46191 9.65868 9.60791 10.2847L10.3339 13.3647L9.83391 13.9707L6.67391 13.8607C6.03391 13.8407 5.53391 14.5847 5.79991 15.1707L7.10991 18.0447L6.73391 18.7447L3.61791 19.2507C2.98591 19.3507 2.64191 20.1847 3.01791 20.7047L4.85791 23.2647L4.62591 24.0247L1.67191 25.1287C1.07191 25.3527 0.895906 26.2347 1.36591 26.6727L3.67791 28.8287L3.60191 29.6127L0.911906 31.2767C0.367906 31.6127 0.367906 32.5167 0.911906 32.8507L3.60191 34.5147L3.67791 35.2987L1.35991 37.4627C0.891906 37.9027 1.06591 38.7827 1.66591 39.0067L4.61991 40.1107L4.85191 40.8707L3.01191 43.4307C2.63791 43.9507 2.98191 44.7827 3.61191 44.8847L6.72591 45.3907L7.10191 46.0907L5.79191 48.9627C5.52591 49.5467 6.02791 50.2967 6.66591 50.2727L9.82591 50.1627L10.3259 50.7707L9.59991 53.8507C9.45391 54.4747 10.0879 55.1107 10.7139 54.9627L13.7939 54.2367L14.4019 54.7367L14.2919 57.8967C14.2679 58.5367 15.0159 59.0367 15.5999 58.7707L18.4719 57.4607L19.1719 57.8367L19.6799 60.9507C19.7799 61.5847 20.6139 61.9267 21.1339 61.5547L23.6939 59.7107L24.4539 59.9427L25.5579 62.8967C25.7819 63.4967 26.6639 63.6727 27.1019 63.2027L29.2579 60.8907L30.0419 60.9707L31.7059 63.6607C32.0419 64.2007 32.9419 64.2047 33.2799 63.6607L34.9439 60.9707L35.7279 60.8907L37.8839 63.2027C38.3239 63.6727 39.2039 63.4967 39.4279 62.8967L40.5319 59.9427L41.2919 59.7107L43.8519 61.5547C44.3719 61.9287 45.2039 61.5847 45.3059 60.9507L45.8139 57.8367L46.5139 57.4607L49.3859 58.7707C49.9699 59.0367 50.7179 58.5387 50.6939 57.8967L50.5839 54.7367L51.1899 54.2367L54.2699 54.9627C54.8959 55.1087 55.5299 54.4747 55.3839 53.8507L54.6579 50.7707L55.1579 50.1627L58.3179 50.2727C58.9579 50.2987 59.4579 49.5467 59.1919 48.9627L57.8819 46.0907L58.2559 45.3907L61.3719 44.8847C62.0059 44.7847 62.3519 43.9527 61.9719 43.4307L60.1319 40.8707L60.3639 40.1107L63.3179 39.0067C63.9179 38.7807 64.0939 37.9007 63.6239 37.4627L61.3119 35.3067L61.3879 34.5227L64.0779 32.8587C64.6219 32.5227 64.6239 31.6227 64.0779 31.2847L61.4019 29.6167Z" fill="white"/>
</svg>
